2 Sampling Distributions, Parameters, and Parameter Estimates – Introduction to the General Linear Model
…
Here we are writing a function that we will use to generate descriptive statistics over 1000 samples. We are keeping this function generic because we are going to use this function again later in the chapter for more simulation examples!

set.seed(101)
samples <- 1:1000 |> 
1  map(\(i) get_sample_mean(data = data[, "like_score"], n_sub = 10)) |>
  list_rbind()

samples

1

We use the map() function to repeat our function 1000 times.

# A tibble: 1,000 × 3
     mean    sd     n
    <dbl> <dbl> <dbl>
 1 -6.89   22.4    10
 2 11.9    20.2    10
 3  0.147  15.9    10
 4 -8.93   27.3    10
 5  8.52   20.0    10
 6  2.02   10.6    10
 7 -0.198  16.9    10
 8 -0.230  21.1    10
 9  1.01   22.7    10
10  6.26   28.4    10
# ℹ 990 more rows
…
