single_quantitative
…
Visualizing the Model

x <- tibble(bac = seq(from = min(data$bac), to = max(data$bac), by = .001))

1preds <- predict(m_2, x, interval = "confidence", level = .95) |>
  as_tibble() 

1

We can use our model to generate predictions. We use the interval = "confidence" and level = .95 arguments to return the upper and lower values of the 95% confidence interval.

preds

# A tibble: 140 × 3
     fit   lwr   upr
   <dbl> <dbl> <dbl>
 1  42.5  29.5  55.5
 2  42.3  29.4  55.1
 3  42.1  29.4  54.8
 4  41.9  29.4  54.4
 5  41.7  29.3  54.1
 6  41.5  29.3  53.8
 7  41.4  29.3  53.4
 8  41.2  29.2  53.1
 9  41.0  29.2  52.8
10  40.8  29.2  52.4
# ℹ 130 more rows
…
1

We use the se.fit = TRUE argument to return the standard error for each prediction.

2

We use mutate() to calculate \(\pm\) 1 standard error values for each prediction.

preds_pub

# A tibble: 140 × 6
     fit se.fit    df residual.scale upper lower
   <dbl>  <dbl> <int>          <dbl> <dbl> <dbl>
 1  42.5   6.55    94           37.0  49.0  35.9
 2  42.3   6.47    94           37.0  48.7  35.8
 3  42.1   6.39    94           37.0  48.5  35.7
 4  41.9   6.32    94           37.0  48.2  35.6
 5  41.7   6.24    94           37.0  48.0  35.5
 6  41.5   6.16    94           37.0  47.7  35.4
 7  41.4   6.09    94           37.0  47.4  35.3
 8  41.2   6.01    94           37.0  47.2  35.2
 9  41.0   5.94    94           37.0  46.9  35.0
10  40.8   5.86    94           37.0  46.7  34.9
# ℹ 130 more rows
…
